# LEMMI input mapping => genome for _ACCESSION = GCF_123.1 will be /bbx/input/training/GCF_123.1.fna.gz or .faa.gz. TAXPATH and TAXPATHSN may contain |NA|NA
@Version:1.0.0
@Ranks:superkingdom|phylum|class|order|family|genus|species
@TaxonomyID:ncbi-taxonomy_2018-09-03
@@TAXID	RANK	TAXPATH	TAXPATHSN	_ACCESSION	_SOURCE
562	species	2|1224|1236|91347|543|561|562	Bacteria|Proteobacteria|Gammaproteobacteria|Enterobacterales|Enterobacteriaceae|Escherichia|coli	GCF_123.1	bacteria
